…
In the invoices with 6 character length, there are only numeric codes
that indicate the transactions that have taken place. Meanwhile, the
invoices with 7 character length, contains a combination of letters and
numbers. It commences with the letter C, followed by a 6-character
numerical code that serves as the transaction identifier.

``` r
###Invoices contains "C" letter
retail[grep(pattern="C", x = retail$Invoice, ignore.case=TRUE),]
```

    ## # A tibble: 19,494 × 8
    ##    Invoice StockCode Description              Quantity InvoiceDate         Price
    ##    <chr>   <chr>     <chr>                       <dbl> <dttm>              <dbl>
    ##  1 C489449 22087     PAPER BUNTING WHITE LACE      -12 2009-12-01 10:33:00  2.95
    ##  2 C489449 85206A    CREAM FELT EASTER EGG B…       -6 2009-12-01 10:33:00  1.65
    ##  3 C489449 21895     POTTING SHED SOW 'N' GR…       -4 2009-12-01 10:33:00  4.25
    ##  4 C489449 21896     POTTING SHED TWINE             -6 2009-12-01 10:33:00  2.1 
    ##  5 C489449 22083     PAPER CHAIN KIT RETRO S…      -12 2009-12-01 10:33:00  2.95
    ##  6 C489449 21871     SAVE THE PLANET MUG           -12 2009-12-01 10:33:00  1.25
    ##  7 C489449 84946     ANTIQUE SILVER TEA GLAS…      -12 2009-12-01 10:33:00  1.25
    ##  8 C489449 84970S    HANGING HEART ZINC T-LI…      -24 2009-12-01 10:33:00  0.85
    ##  9 C489449 22090     PAPER BUNTING RETRO SPO…      -12 2009-12-01 10:33:00  2.95
    ## 10 C489459 90200A    PURPLE SWEETHEART BRACE…       -3 2009-12-01 10:44:00  4.25
    ## # ℹ 19,484 more rows
    ## # ℹ 2 more variables: `Customer ID` <dbl>, Country <chr>
…
``` r
###product code with 1 character length
retail %>% filter(nchar(StockCode) == 1)
```

    ## # A tibble: 1,713 × 8
    ##    Invoice StockCode Description Quantity InvoiceDate           Price
    ##    <chr>   <chr>     <chr>          <dbl> <dttm>                <dbl>
    ##  1 C489535 D         Discount          -1 2009-12-01 12:11:00    9   
    ##  2 C489535 D         Discount          -1 2009-12-01 12:11:00   19   
    ##  3 489609  M         Manual             1 2009-12-01 14:50:00    4   
    ##  4 C489651 M         Manual            -1 2009-12-01 16:48:00    5.1 
    ##  5 C489859 M         Manual            -1 2009-12-02 14:45:00   69.6 
    ##  6 C490126 M         Manual            -1 2009-12-03 18:12:00    5.95
    ##  7 C490129 M         Manual            -1 2009-12-03 18:26:00 1998.  
    ##  8 490300  M         Manual             1 2009-12-04 14:19:00    0.85
    ##  9 490300  M         Manual             1 2009-12-04 14:19:00    0.21
    ## 10 490727  M         Manual             1 2009-12-07 16:38:00    0   
    ## # ℹ 1,703 more rows
    ## # ℹ 2 more variables: `Customer ID` <dbl>, Country <chr>

The product code with a length of 1 character contains Manual, Discount,
SAMPLES, and Adjust bad debt, which are not products for sale.

``` r
###product code with 2 character length
retail %>% filter(nchar(StockCode) == 2)
```

    ## # A tibble: 283 × 8
    ##    Invoice StockCode Description Quantity InvoiceDate         Price
    ##    <chr>   <chr>     <chr>          <dbl> <dttm>              <dbl>
    ##  1 490127  C2        CARRIAGE           1 2009-12-03 18:13:00    50
    ##  2 490541  C2        CARRIAGE           1 2009-12-07 09:25:00    50
    ##  3 490542  C2        CARRIAGE           1 2009-12-07 09:42:00    50
    ##  4 490998  C2        CARRIAGE           1 2009-12-08 17:24:00    50
    ##  5 491160  C2        CARRIAGE           1 2009-12-10 10:29:00    50
    ##  6 491702  C2        CARRIAGE           1 2009-12-13 13:53:00    50
    ##  7 491990  C2        <NA>             100 2009-12-15 10:06:00     0
    ##  8 492092  C2        CARRIAGE           1 2009-12-15 14:03:00    50
    ##  9 492250  C2        CARRIAGE           1 2009-12-16 10:45:00    50
    ## 10 492746  C2        CARRIAGE           1 2009-12-18 13:01:00    50
    ## # ℹ 273 more rows
    ## # ℹ 2 more variables: `Customer ID` <dbl>, Country <chr>

The product code with a length of 2 characters only contains CARRIAGE,
which is not a product for sale.

``` r
###product code with 3 character length
retail %>% filter(nchar(StockCode) == 3)
```

    ## # A tibble: 1,446 × 8
    ##    Invoice StockCode Description    Quantity InvoiceDate         Price
    ##    <chr>   <chr>     <chr>             <dbl> <dttm>              <dbl>
    ##  1 489597  DOT       DOTCOM POSTAGE        1 2009-12-01 14:28:00 647. 
    ##  2 489600  DOT       DOTCOM POSTAGE        1 2009-12-01 14:43:00  56.0
    ##  3 489601  DOT       DOTCOM POSTAGE        1 2009-12-01 14:44:00  68.4
    ##  4 489602  DOT       DOTCOM POSTAGE        1 2009-12-01 14:45:00  59.4
    ##  5 489603  DOT       DOTCOM POSTAGE        1 2009-12-01 14:46:00  42.4
    ##  6 489604  DOT       DOTCOM POSTAGE        1 2009-12-01 14:47:00  50.9
    ##  7 489607  DOT       DOTCOM POSTAGE        1 2009-12-01 14:49:00  76.3
    ##  8 489609  DOT       DOTCOM POSTAGE        1 2009-12-01 14:50:00  74.6
    ##  9 489612  DOT       DOTCOM POSTAGE        1 2009-12-01 14:55:00  87.4
    ## 10 489614  DOT       DOTCOM POSTAGE        1 2009-12-01 14:56:00  80.3
    ## # ℹ 1,436 more rows
    ## # ℹ 2 more variables: `Customer ID` <dbl>, Country <chr>

The product code with a length of 3 characters only contains DOTCOM
POSTAGE, which is not a product for sale.

``` r
###product code with 4 character length
retail %>% filter(nchar(StockCode) == 4)
```

    ## # A tibble: 2,158 × 8
    ##    Invoice StockCode Description Quantity InvoiceDate          Price
    ##    <chr>   <chr>     <chr>          <dbl> <dttm>               <dbl>
    ##  1 489439  POST      POSTAGE            3 2009-12-01 09:28:00  18   
    ##  2 489444  POST      POSTAGE            1 2009-12-01 09:55:00 141   
    ##  3 489447  POST      POSTAGE            1 2009-12-01 10:10:00 130   
    ##  4 489526  POST      POSTAGE            6 2009-12-01 11:50:00  18   
    ##  5 C489538 POST      POSTAGE           -1 2009-12-01 12:18:00   9.58
    ##  6 489557  POST      POSTAGE            4 2009-12-01 12:52:00  18   
    ##  7 C489685 POST      POSTAGE           -1 2009-12-02 10:28:00  18   
    ##  8 489883  POST      POSTAGE            3 2009-12-02 16:24:00  18   
    ##  9 C490117 POST      POSTAGE           -1 2009-12-03 17:38:00   2.99
    ## 10 C490120 POST      POSTAGE           -2 2009-12-03 17:52:00  18   
    ## # ℹ 2,148 more rows
    ## # ℹ 2 more variables: `Customer ID` <dbl>, Country <chr>

The product code with a length of 4 characters only contains POSTAGE,
which is not a product for sale.

``` r
###product code with 5 character length
retail %>% filter(nchar(StockCode) == 5)
```

    ## # A tibble: 932,385 × 8
    ##    Invoice StockCode Description              Quantity InvoiceDate         Price
    ##    <chr>   <chr>     <chr>                       <dbl> <dttm>              <dbl>
    ##  1 489434  85048     "15CM CHRISTMAS GLASS B…       12 2009-12-01 07:45:00  6.95
    ##  2 489434  22041     "RECORD FRAME 7\" SINGL…       48 2009-12-01 07:45:00  2.1 
    ##  3 489434  21232     "STRAWBERRY CERAMIC TRI…       24 2009-12-01 07:45:00  1.25
    ##  4 489434  22064     "PINK DOUGHNUT TRINKET …       24 2009-12-01 07:45:00  1.65
    ##  5 489434  21871     "SAVE THE PLANET MUG"          24 2009-12-01 07:45:00  1.25
    ##  6 489434  21523     "FANCY FONT HOME SWEET …       10 2009-12-01 07:45:00  5.95
    ##  7 489435  22350     "CAT BOWL"                     12 2009-12-01 07:46:00  2.55
    ##  8 489435  22349     "DOG BOWL , CHASING BAL…       12 2009-12-01 07:46:00  3.75
    ##  9 489435  22195     "HEART MEASURING SPOONS…       24 2009-12-01 07:46:00  1.65
    ## 10 489435  22353     "LUNCHBOX WITH CUTLERY …       12 2009-12-01 07:46:00  2.55
    ## # ℹ 932,375 more rows
    ## # ℹ 2 more variables: `Customer ID` <dbl>, Country <chr>

The product code with a length of 5 character contains 15CM CHRISTMAS
GLASS BALL 20 LIGHTS, RECORD FRAME 7” SINGLE SIZE, STRAWBERRY CERAMIC
TRINKET BOX, and many more, which are products for sale.

``` r
###product code with 6 character length
retail %>% filter(nchar(StockCode) == 6)
```

    ## # A tibble: 127,591 × 8
    ##    Invoice StockCode Description              Quantity InvoiceDate         Price
    ##    <chr>   <chr>     <chr>                       <dbl> <dttm>              <dbl>
    ##  1 489434  79323P    PINK CHERRY LIGHTS             12 2009-12-01 07:45:00  6.75
    ##  2 489434  79323W    WHITE CHERRY LIGHTS            12 2009-12-01 07:45:00  6.75
    ##  3 489436  48173C    DOOR MAT BLACK FLOCK           10 2009-12-01 09:06:00  5.95
    ##  4 489436  35004B    SET OF 3 BLACK FLYING D…       12 2009-12-01 09:06:00  4.65
    ##  5 489436  84596F    SMALL MARSHMALLOWS PINK…        8 2009-12-01 09:06:00  1.25
    ##  6 489436  84596L    BISCUITS SMALL BOWL LIG…        8 2009-12-01 09:06:00  1.25
    ##  7 489437  84507B    STRIPES DESIGN MONKEY D…        6 2009-12-01 09:08:00  2.55
    ##  8 489437  84970S    HANGING HEART ZINC T-LI…       12 2009-12-01 09:08:00  0.85
    ##  9 489438  84031A    CHARLIE+LOLA RED HOT WA…       56 2009-12-01 09:24:00  3   
    ## 10 489438  84031B    CHARLIE LOLA BLUE HOT W…       56 2009-12-01 09:24:00  3   
    ## # ℹ 127,581 more rows
    ## # ℹ 2 more variables: `Customer ID` <dbl>, Country <chr>

The product code with a length of 6 character contains PINK CHERRY
LIGHTS, WHITE CHERRY LIGHTS, DOOR MAT BLACK FLOCK, and many more, which
are products for sale.

``` r
###product code with 7 character length
retail %>% filter(nchar(StockCode) == 7)
```

    ## # A tibble: 1,392 × 8
    ##    Invoice StockCode Description              Quantity InvoiceDate         Price
    ##    <chr>   <chr>     <chr>                       <dbl> <dttm>              <dbl>
    ##  1 489522  79323LP   LIGHT PINK CHERRY LIGHTS        1 2009-12-01 11:45:00  6.75
    ##  2 489526  15056BL   EDWARDIAN PARASOL BLACK         6 2009-12-01 11:50:00  5.95
    ##  3 C489588 79323GR   GREEN CHERRY LIGHTS            -2 2009-12-01 14:01:00  6.75
    ##  4 489604  15056bl   EDWARDIAN PARASOL BLACK         1 2009-12-01 14:47:00 13   
    ##  5 489658  15056BL   EDWARDIAN PARASOL BLACK        12 2009-12-01 17:31:00  5.95
    ##  6 489658  79323LP   LIGHT PINK CHERRY LIGHTS        6 2009-12-01 17:31:00  6.75
    ##  7 489664  79323GR   GREEN CHERRY LIGHTS             2 2009-12-01 18:03:00  6.75
    ##  8 489675  15056BL   EDWARDIAN PARASOL BLACK       240 2009-12-02 09:47:00  4.6 
    ##  9 489688  79323LP   LIGHT PINK CHERRY LIGHTS       24 2009-12-02 10:42:00  5.45
    ## 10 489789  15056BL   EDWARDIAN PARASOL BLACK         3 2009-12-02 11:59:00  5.95
    ## # ℹ 1,382 more rows
    ## # ℹ 2 more variables: `Customer ID` <dbl>, Country <chr>

The product code with a length of 7 character contains LIGHT PINK CHERRY
LIGHTS, EDWARDIAN PARASOL BLACK, GREEN CHERRY LIGHTS, and many more,
which are products for sale.

``` r
###product code with 8 character length
retail %>% filter(nchar(StockCode) == 8)
```

    ## # A tibble: 127 × 8
    ##    Invoice StockCode Description              Quantity InvoiceDate         Price
    ##    <chr>   <chr>     <chr>                       <dbl> <dttm>              <dbl>
    ##  1 489597  DCGS0058  MISO PRETTY  GUM                1 2009-12-01 14:28:00  0.83
    ##  2 489597  DCGS0068  DOGS NIGHT COLLAR               1 2009-12-01 14:28:00  8.65
    ##  3 490074  DCGS0004  HAYNES CAMPER SHOULDER …        1 2009-12-03 14:39:00 17.4 
    ##  4 490074  DCGS0058  MISO PRETTY  GUM                1 2009-12-03 14:39:00  0.83
    ##  5 490074  DCGS0076  SUNJAR LED NIGHT NIGHT …        1 2009-12-03 14:39:00 16.5 
    ##  6 490741  DCGS0076  SUNJAR LED NIGHT NIGHT …        1 2009-12-07 17:56:00 16.5 
    ##  7 490745  DCGS0058  MISO PRETTY  GUM                1 2009-12-07 18:02:00  0.83
    ##  8 490745  DCGS0076  SUNJAR LED NIGHT NIGHT …        1 2009-12-07 18:02:00 16.5 
    ##  9 491041  DCGS0003  BOXED GLASS ASHTRAY             1 2009-12-09 09:42:00  2.57
    ## 10 491043  DCGS0076  SUNJAR LED NIGHT NIGHT …        1 2009-12-09 09:51:00 16.5 
    ## # ℹ 117 more rows
    ## # ℹ 2 more variables: `Customer ID` <dbl>, Country <chr>

The product code with a length of 8 character contains BOYS PARTY BAG,
HAYNES CAMPER SHOULDER BAG, BOXED GLASS ASHTRAY, and many more, which
are products for sale.

``` r
###product code with 9 character length
retail %>% filter(nchar(StockCode) == 9)
```

    ## # A tibble: 74 × 8
    ##    Invoice StockCode Description             Quantity InvoiceDate         Price
    ##    <chr>   <chr>     <chr>                      <dbl> <dttm>              <dbl>
    ##  1 493265  DCGS0066N NAVY CUDDLES DOG HOODIE        1 2009-12-22 15:05:00  8.65
    ##  2 493268  DCGS0066N <NA>                           1 2009-12-22 15:07:00  0   
    ##  3 493269  DCGS0066N NAVY CUDDLES DOG HOODIE        1 2009-12-22 15:07:00  8.65
    ##  4 493289  DCGS0066N <NA>                           1 2009-12-22 15:13:00  0   
    ##  5 496722  DCGSSGIRL <NA>                          -1 2010-02-03 14:04:00  0   
    ##  6 499042  DCGSLGIRL <NA>                         -57 2010-02-24 13:31:00  0   
    ##  7 512738  DCGSSGIRL update                       100 2010-06-17 14:11:00  0   
    ##  8 513099  DCGSSGIRL GIRLS PARTY BAG                3 2010-06-21 15:13:00  3.36
    ##  9 513200  DCGSSGIRL GIRLS PARTY BAG                6 2010-06-22 16:28:00  3.36
    ## 10 513574  DCGSSGIRL GIRLS PARTY BAG                1 2010-06-25 15:13:00  3.36
    ## # ℹ 64 more rows
    ## # ℹ 2 more variables: `Customer ID` <dbl>, Country <chr>

The product code with a length of 9 character contains NAVY CUDDLES DOG
HOODIE dan GIRLS PARTY BAG and many more, which are products for sale.
while update dan AMAZON FEE are not products for sale.

``` r
###product code with 12 character length
retail %>% filter(nchar(StockCode) == 12)
```

    ## # A tibble: 202 × 8
    ##    Invoice StockCode    Description          Quantity InvoiceDate          Price
    ##    <chr>   <chr>        <chr>                   <dbl> <dttm>               <dbl>
    ##  1 C490943 BANK CHARGES Bank Charges               -1 2009-12-08 14:08:00  15   
    ##  2 490948  BANK CHARGES Bank Charges                1 2009-12-08 14:29:00  15   
    ##  3 491968  gift_0001_80 <NA>                        2 2009-12-14 17:56:00   0   
    ##  4 491969  gift_0001_80 Dotcomgiftshop Gift…        1 2009-12-14 17:57:00  69.6 
    ##  5 491971  gift_0001_20 Dotcomgiftshop Gift…        2 2009-12-14 18:37:00  17.4 
    ##  6 C492206 BANK CHARGES Bank Charges               -1 2009-12-15 16:32:00 848.  
    ##  7 492782  gift_0001_10 Dotcomgiftshop Gift…        1 2009-12-18 17:06:00   8.69
    ##  8 492782  gift_0001_20 Dotcomgiftshop Gift…        1 2009-12-18 17:06:00  17.4 
    ##  9 492783  gift_0001_50 Dotcomgiftshop Gift…        1 2009-12-18 17:15:00  43.5 
    ## 10 493404  gift_0001_30 Dotcomgiftshop Gift…        1 2009-12-23 15:30:00  26.1 
    ## # ℹ 192 more rows
    ## # ℹ 2 more variables: `Customer ID` <dbl>, Country <chr>
…
## Examining Duplication on the Data

This process focuses on identifying whether there are duplicates in the
data within the data frame. Data duplication is commonly found in data
frames and can occur due to errors or mistakes in data input. The
process of checking for duplicate data is necessary, as if duplicate
data is not handled properly, the modeling results will become
inaccurate.

``` r
##examining duplication in the data
get_dupes(retail)
```

    ## # A tibble: 48,262 × 9
    ##    Invoice StockCode Description     Quantity Date       Time  Price Customer_ID
    ##    <chr>   <chr>     <chr>              <dbl> <date>     <chr> <dbl> <chr>      
    ##  1 555524  22698     PINK REGENCY T…        1 2011-06-05 11:3…  2.95 16923      
    ##  2 555524  22698     PINK REGENCY T…        1 2011-06-05 11:3…  2.95 16923      
    ##  3 555524  22698     PINK REGENCY T…        1 2011-06-05 11:3…  2.95 16923      
    ##  4 555524  22698     PINK REGENCY T…        1 2011-06-05 11:3…  2.95 16923      
    ##  5 555524  22698     PINK REGENCY T…        1 2011-06-05 11:3…  2.95 16923      
    ##  6 555524  22698     PINK REGENCY T…        1 2011-06-05 11:3…  2.95 16923      
    ##  7 555524  22698     PINK REGENCY T…        1 2011-06-05 11:3…  2.95 16923      
    ##  8 555524  22698     PINK REGENCY T…        1 2011-06-05 11:3…  2.95 16923      
    ##  9 555524  22698     PINK REGENCY T…        1 2011-06-05 11:3…  2.95 16923      
    ## 10 555524  22698     PINK REGENCY T…        1 2011-06-05 11:3…  2.95 16923      
    ## # ℹ 48,252 more rows
    ## # ℹ 1 more variable: dupe_count <int>
…
``` r
###examining price with value greater than 0 and less or equal to 1
retail %>% 
  filter(Price > 0 & Price <= 1) %>% 
  select(Description, Price) %>% 
  distinct() %>% 
  arrange(Price)
```

    ## # A tibble: 2,907 × 2
    ##    Description                         Price
    ##    <chr>                               <dbl>
    ##  1 POPART COL BALLPOINT PEN ASST        0.03
    ##  2 ASSORTED SHAPED STENCIL FOR HENNA    0.04
    ##  3 POPART WOODEN PENCILS ASST           0.04
    ##  4 THE KING GIFT BAG                    0.05
    ##  5 JACOBS LADDER SMALL                  0.06
    ##  6 POP ART PUSH DOWN RUBBER             0.06
    ##  7 ARMY CAMO WRAPPING TAPE              0.06
    ##  8 HEARTS WRAPPING TAPE                 0.06
    ##  9 ESSENTIAL BALM 3.5g TIN IN ENVELOPE  0.06
    ## 10 CARTOON  PENCIL SHARPENERS           0.06
    ## # ℹ 2,897 more rows
…
Examination of sold products is conducted to verify whether all data are
sold items or if there are any data that are not sold products, which
could interfere with the analysis and lead to biased and inaccurate
results. This examination involves displaying each sold item and
arranging them from highest to lowest price.

``` r
##examining product sold
###examining which products has the highest price 
retail %>% 
  select(Price, Quantity, Description) %>% 
  arrange(desc(Price)) 
```

    ## # A tibble: 724,465 × 3
    ##    Price Quantity Description                        
    ##    <dbl>    <dbl> <chr>                              
    ##  1  650.       24 PICNIC BASKET WICKER 60 PIECES     
    ##  2  650.        1 PICNIC BASKET WICKER 60 PIECES     
    ##  3  388.        1 Adjustment by john on 26/01/2010 17
    ##  4  358.        1 Adjustment by Peter on Jun 25 2010 
    ##  5  343.        1 Adjustment by john on 26/01/2010 16
    ##  6  300.        1 Adjustment by Peter on Jun 25 2010 
    ##  7  295         1 VINTAGE BLUE KITCHEN CABINET       
    ##  8  295         1 VINTAGE RED KITCHEN CABINET        
    ##  9  295         1 VINTAGE BLUE KITCHEN CABINET       
    ## 10  295         1 VINTAGE BLUE KITCHEN CABINET       
    ## # ℹ 724,455 more rows
…
After transforming the Description column, then a reexamination is
conducted on the sold products to ensure whether all data are indeed
sold products or if there are still data that are not sold products.

``` r
###reexamining which products has the highest price
retail %>% 
  select(Price, Quantity, Description) %>% 
  arrange(desc(Price))
```

    ## # A tibble: 724,452 × 3
    ##    Price Quantity Description                   
    ##    <dbl>    <dbl> <chr>                         
    ##  1  650.       24 PICNIC BASKET WICKER 60 PIECES
    ##  2  650.        1 PICNIC BASKET WICKER 60 PIECES
    ##  3  295         1 VINTAGE BLUE KITCHEN CABINET  
    ##  4  295         1 VINTAGE RED KITCHEN CABINET   
    ##  5  295         1 VINTAGE BLUE KITCHEN CABINET  
    ##  6  295         1 VINTAGE BLUE KITCHEN CABINET  
    ##  7  295         1 VINTAGE BLUE KITCHEN CABINET  
    ##  8  295         1 VINTAGE RED KITCHEN CABINET   
    ##  9  295         1 VINTAGE BLUE KITCHEN CABINET  
    ## 10  295         1 VINTAGE RED KITCHEN CABINET   
    ## # ℹ 724,442 more rows
…
