…
##add cumulative variable
df_abc$Cumulative <- cumsum(df_abc$Revenue)

##add percentage variable
df_abc <- df_abc %>% mutate(Percentage = Cumulative/sum(Revenue)*100)

df_abc #result
```

    ## # A tibble: 3,782 × 5
    ##    Description                        Sales Revenue Cumulative Percentage
    ##    <chr>                              <dbl>   <dbl>      <dbl>      <dbl>
    ##  1 REGENCY CAKESTAND 3 TIER            7154  83538.     83538.       1.67
    ##  2 WHITE HANGING HEART T-LIGHT HOLDER 17296  48164.    131702.       2.63
    ##  3 PARTY BUNTING                       9179  43291.    174992.       3.50
    ##  4 JUMBO BAG RED RETROSPOT            16611  32719.    207712.       4.16
    ##  5 ASSORTED COLOUR BIRD ORNAMENT      17858  29921.    237633.       4.75
    ##  6 CHILLI LIGHTS                       4926  24692.    262324.       5.25
    ##  7 SPOTTY BUNTING                      5077  24493.    286817.       5.74
    ##  8 DOORMAT KEEP CALM AND COME IN       3269  23987.    310803.       6.22
    ##  9 PAPER CHAIN KIT 50'S CHRISTMAS      8259  23666.    334469.       6.69
    ## 10 HOT WATER BOTTLE KEEP CALM          4438  20566.    355036.       7.10
    ## # ℹ 3,772 more rows
…
##filter data with sales month is equal to 25
a_product <- a_product %>% 
  group_by(Description) %>% 
  summarise(sum = n()) %>% 
  filter(sum == 25) %>% 
  select(Description)

a_product #result
```

    ## # A tibble: 64 × 1
    ##    Description                      
    ##    <chr>                            
    ##  1 3 HOOK PHOTO SHELF ANTIQUE WHITE 
    ##  2 3 STRIPEY MICE FELTCRAFT         
    ##  3 60 TEATIME FAIRY CAKE CASES      
    ##  4 ANTIQUE SILVER TEA GLASS ENGRAVED
    ##  5 ASSORTED COLOUR BIRD ORNAMENT    
    ##  6 ASSORTED COLOUR MINI CASES       
    ##  7 ASSORTED COLOURS SILK FAN        
    ##  8 BAKING SET 9 PIECE RETROSPOT     
    ##  9 BEWARE OF THE CAT METAL SIGN     
    ## 10 BLACK RECORD COVER FRAME         
    ## # ℹ 54 more rows
…
